[INFO ]  [22:07:12] - log4j2.xml: file loaded successfully
[INFO ]  [22:07:12] - Starting: Pull Management Application 1.0
[INFO ]  [22:07:12] - Loading Property file
[INFO ]  [22:07:12] - Loading Renewals file
[INFO ]  [22:07:13] - matching input file data with pull template
